@startuml
' describe rest testing flow currently and with new application

skinparam responseMessageBelowArrow true

participant A
participant C
participant B

group 1. Tavaolukord
    A -> B: Päring
    B -> A: Vastus
end

group 2. Ümberseadistatud
    A -> C: Päring
    C -> A: Vastus
end

/'group 3. Ümberseadistatud edasisaatmisega
    A -> C: Päring
    C -> B: Päring
    B -> C: Vastus
    C -> A: Vastus
end'/

@enduml
